﻿E017,IMR90_Cell_Line,LNG.IMR90
E002,ES-WA7_Cell_Line,ESC.WA7
E008,H9_Cell_Line,ESC.H9
E001,ES-I3_Cell_Line,ESC.I3
E015,HUES6_Cell_Line,ESC.HUES6
E014,HUES48_Cell_Line,ESC.HUES48
E016,HUES64_Cell_Line,ESC.HUES64
E003,H1_Cell_Line,ESC.H1
E024,4star,ESC.4STAR
E020,iPS-20b_Cell_Line,IPSC.20B
E019,iPS-18_Cell_Line,IPSC.18
E018,iPS-15b_Cell_Line,IPSC.15b
E021,iPS_DF_6.9_Cell_Line,IPSC.DF.6.9
E022,iPS_DF_19.11_Cell_Line,IPSC.DF.19.11
E007,H1_Derived_Neuronal_Progenitor_Cultured_Cells,ESDR.H1.NEUR.PROG
E009,H9_Derived_Neuronal_Progenitor_Cultured_Cells,ESDR.H9.NEUR.PROG
E010,H9_Derived_Neuron_Cultured_Cells,ESDR.H9.NEUR
E013,hESC_Derived_CD56+_Mesoderm_Cultured_Cells,ESDR.CD56.MESO
E012,hESC_Derived_CD56+_Ectoderm_Cultured_Cells,ESDR.CD56.ECTO
E011,hESC_Derived_CD184+_Endoderm_Cultured_Cells,ESDR.CD184.ENDO
E004,H1_BMP4_Derived_Mesendoderm_Cultured_Cells,ESDR.H1.BMP4.MESO
E005,H1_BMP4_Derived_Trophoblast_Cultured_Cells,ESDR.H1.BMP4.TROP
E006,H1_Derived_Mesenchymal_Stem_Cells,ESDR.H1.MSC
E062,Peripheral_Blood_Mononuclear_Primary_Cells,BLD.PER.MONUC.PC
E034,CD3_Primary_Cells_Peripheral_UW,BLD.CD3.PPC
E045,CD4+_CD25int_CD127+_Tmem_Primary_Cells,BLD.CD4.CD25I.CD127.TMEMPC
E033,CD3_Primary_Cells_Cord_BI,BLD.CD3.CPC
E044,CD4+_CD25+_CD127-_Treg_Primary_Cells,BLD.CD4.CD25.CD127M.TREGPC
E043,CD4+_CD25-_Th_Primary_Cells,BLD.CD4.CD25M.TPC
E039,CD4+_CD25-_CD45RA+_Naive_Primary_Cells,BLD.CD4.CD25M.CD45RA.NPC
E041,CD4+_CD25-_IL17-_PMA-Ionomycin_stimulated_MACS_purified_Th_Primary_Cells,BLD.CD4.CD25M.IL17M.PL.TPC
E042,CD4+_CD25-_IL17+_PMA-Ionomcyin_stimulated_Th17_Primary_Cells,BLD.CD4.CD25M.IL17P.PL.TPC
E040,CD4+_CD25-_CD45RO+_Memory_Primary_Cells,BLD.CD4.CD25M.CD45RO.MPC
E037,CD4_Memory_Primary_Cells,BLD.CD4.MPC
E048,CD8_Memory_Primary_Cells,BLD.CD8.MPC
E038,CD4_Naive_Primary_Cells,BLD.CD4.NPC
E047,CD8_Naive_Primary_Cells,BLD.CD8.NPC
E029,CD14_Primary_Cells,BLD.CD14.PC
E031,CD19_Primary_Cells_Cord_BI,BLD.CD19.CPC
E035,CD34_Primary_Cells,BLD.CD34.PC
E051,Mobilized_CD34_Primary_Cells_Male,BLD.MOB.CD34.PC.M
E050,Mobilized_CD34_Primary_Cells_Female,BLD.MOB.CD34.PC.F
E036,CD34_Cultured_Cells,BLD.CD34.CC
E032,CD19_Primary_Cells_Peripheral_UW,BLD.CD19.PPC
E046,CD56_Primary_Cells,BLD.CD56.PC
E030,CD15_Primary_Cells,BLD.CD15.PC
E026,Bone_Marrow_Derived_Mesenchymal_Stem_Cell_Cultured_Cells,STRM.MRW.MSC
E049,Chondrocytes_from_Bone_Marrow_Derived_Mesenchymal_Stem_Cell_Cultured_Cells,STRM.CHON.MRW.DR.MSC
E025,Adipose_Derived_Mesenchymal_Stem_Cell_Cultured_Cells,FAT.ADIP.DR.MSC
E023,Mesenchymal_Stem_Cell_Derived_Adipocyte_Cultured_Cells,FAT.MSC.DR.ADIP
E052,Muscle_Satellite_Cultured_Cells,MUS.SAT
E055,Penis_Foreskin_Fibroblast_Primary_Cells_skin01,SKIN.PEN.FRSK.FIB.01
E056,Penis_Foreskin_Fibroblast_Primary_Cells_skin02,SKIN.PEN.FRSK.FIB.02
E059,Penis_Foreskin_Melanocyte_Primary_Cells_skin01,SKIN.PEN.FRSK.MEL.01
E061,Penis_Foreskin_Melanocyte_Primary_Cells_skin03,SKIN.PEN.FRSK.MEL.03
E057,Penis_Foreskin_Keratinocyte_Primary_Cells_skin02,SKIN.PEN.FRSK.KER.02
E058,Penis_Foreskin_Keratinocyte_Primary_Cells_skin03,SKIN.PEN.FRSK.KER.03
E028,Breast_vHMEC,BRST.HMEC.35
E027,Breast_Myoepithelial_Cells,BRST.MYO
E054,Neurosphere_Cultured_Cells_Ganglionic_Eminence_Derived,BRN.GANGEM.DR.NRSPHR
E053,Neurosphere_Cultured_Cells_Cortex_Derived,BRN.CRTX.DR.NRSPHR
E112,Thymus,THYM
E093,Fetal_Thymus,THYM.FET
E071,Brain_Hippocampus_Middle,BRN.HIPP.MID
E074,Brain_Substantia_Nigra,BRN.SUB.NIG
E068,Brain_Anterior_Caudate,BRN.ANT.CAUD
E069,Brain_Cingulate_Gyrus,BRN.CING.GYR
E072,Brain_Inferior_Temporal_Lobe,BRN.INF.TMP
E067,Brain_Angular_Gyrus,BRN.ANG.GYR
E073,Brain_Mid_Frontal_Lobe,BRN.DL.PRFRNTL.CRTX
E070,Brain_Germinal_Matrix,BRN.GRM.MTRX
E082,Fetal_Brain_Female,BRN.FET.F
E081,Fetal_Brain_Male,BRN.FET.M
E063,Adipose_Nuclei,FAT.ADIP.NUC
E100,Psoas_Muscle,MUS.PSOAS
E108,Skeletal_Muscle_Female,MUS.SKLT.F
E107,Skeletal_Muscle_Male,MUS.SKLT.M
E089,Fetal_Muscle_Trunk,MUS.TRNK.FET
E090,Fetal_Muscle_Leg,MUS.LEG.FET
E083,Fetal_Heart,HRT.FET
E104,Right_Atrium,HRT.ATR.R
E095,Left_Ventricle,HRT.VENT.L
E105,Right_Ventricle,HRT.VNT.R
E065,Aorta,VAS.AOR
E078,Duodenum_Smooth_Muscle,GI.DUO.SM.MUS
E076,Colon_Smooth_Muscle,GI.CLN.SM.MUS
E103,Rectal_Smooth_Muscle,GI.RECT.SM.MUS
E111,Stomach_Smooth_Muscle,GI.STMC.MUS
E092,Fetal_Stomach,GI.STMC.FET
E085,Fetal_Intestine_Small,GI.S.INT.FET
E084,Fetal_Intestine_Large,GI.L.INT.FET
E109,Small_Intestine,GI.S.INT
E106,Sigmoid_Colon,GI.CLN.SIG
E075,Colonic_Mucosa,GI.CLN.MUC
E101,Rectal_Mucosa.Donor_29,GI.RECT.MUC.29
E102,Rectal_Mucosa.Donor_31,GI.RECT.MUC.31
E110,Stomach_Mucosa,GI.STMC.MUC
E077,Duodenum_Mucosa,GI.DUO.MUC
E079,Esophagus,GI.ESO
E094,Gastric,GI.STMC.GAST
E099,Placenta_Amnion,PLCNT.AMN
E086,Fetal_Kidney,KID.FET
E088,Fetal_Lung,LNG.FET
E097,Ovary,OVRY
E087,Pancreatic_Islets,PANC.ISLT
E080,Fetal_Adrenal_Gland,ADRL.GLND.FET
E091,Fetal_Placenta,PLCNT.FET
E066,Adult_Liver,LIV.ADLT
E098,Pancreas,PANC
E096,Lung_Normal,LNG
E113,Spleen,SPLN
E114,A549_EtOH_0.02pct_Lung_Carcinoma,LNG.A549.ETOH002.CNCR
E115,Dnd41_TCell_Leukemia,BLD.DND41.CNCR
E116,GM12878_Lymphoblastoid,BLD.GM12878
E117,HeLa-S3_Cervical_Carcinoma,CRVX.HELAS3.CNCR
E118,HepG2_Hepatocellular_Carcinoma,LIV.HEPG2.CNCR
E119,HMEC_Mammary_Epithelial,BRST.HMEC
E120,HSMM_Skeletal_Muscle_Myoblasts,MUS.HSMM
E121,HSMMtube_Skeletal_Muscle_Myotubes_Derived_from_HSMM,MUS.HSMMT
E122,HUVEC_Umbilical_Vein_Endothelial_Cells,VAS.HUVEC
E123,K562_Leukemia,BLD.K562.CNCR
E124,Monocytes-CD14+_RO01746,BLD.CD14.MONO
E125,NH-A_Astrocytes,BRN.NHA
E126,NHDF-Ad_Adult_Dermal_Fibroblasts,SKIN.NHDFAD
E127,NHEK-Epidermal_Keratinocytes,SKIN.NHEK
E128,NHLF_Lung_Fibroblasts,LNG.NHLF
E129,Osteoblasts,BONE.OSTEO